[
  {
    "description": "'unused' is assigned a value but never used.",
    "fingerprint": "7815696ecbf1c96e6894b779456d330e",
    "location": {
      "path": "lib/index.js",
      "lines": {
        "begin": 42
      }
    }
  }
]